(footprint Texas_RGC0064B_VQFN-64-1EP_9x9mm_P0.5mm_EP4.25x4.25mm_ThermalVias (version 20221018) (generator kicad-footprint-generator)
  (layer F.Cu)
  (descr "Texas RGC0064B VQFN, 64 Pin (http://www.ti.com/lit/ds/symlink/msp430f5217.pdf#page=122), generated with kicad-footprint-generator ipc_noLead_generator.py")
  (tags "Texas VQFN NoLead")
  (attr smd)
  (fp_text reference REF** (at 0 -5.83) (layer F.SilkS)
    (effects (font (size 1 1) (thickness 0.15)))
  )
  (fp_text value Texas_RGC0064B_VQFN-64-1EP_9x9mm_P0.5mm_EP4.25x4.25mm_ThermalVias (at 0 5.83) (layer F.Fab)
    (effects (font (size 1 1) (thickness 0.15)))
  )
  (fp_line (start 4.135 -4.61) (end 4.61 -4.61)
    (stroke (width 0.12) (type solid)) (layer F.SilkS))
  (fp_line (start 4.61 -4.61) (end 4.61 -4.135)
    (stroke (width 0.12) (type solid)) (layer F.SilkS))
  (fp_line (start -4.135 4.61) (end -4.61 4.61)
    (stroke (width 0.12) (type solid)) (layer F.SilkS))
  (fp_line (start -4.61 4.61) (end -4.61 4.135)
    (stroke (width 0.12) (type solid)) (layer F.SilkS))
  (fp_line (start 4.135 4.61) (end 4.61 4.61)
    (stroke (width 0.12) (type solid)) (layer F.SilkS))
  (fp_line (start 4.61 4.61) (end 4.61 4.135)
    (stroke (width 0.12) (type solid)) (layer F.SilkS))
  (fp_line (start -4.135 -4.61) (end -4.61 -4.61)
    (stroke (width 0.12) (type solid)) (layer F.SilkS))
  (fp_line (start -3.5 -4.5) (end 4.5 -4.5)
    (stroke (width 0.1) (type solid)) (layer F.Fab))
  (fp_line (start 4.5 -4.5) (end 4.5 4.5)
    (stroke (width 0.1) (type solid)) (layer F.Fab))
  (fp_line (start 4.5 4.5) (end -4.5 4.5)
    (stroke (width 0.1) (type solid)) (layer F.Fab))
  (fp_line (start -4.5 4.5) (end -4.5 -3.5)
    (stroke (width 0.1) (type solid)) (layer F.Fab))
  (fp_line (start -4.5 -3.5) (end -3.5 -4.5)
    (stroke (width 0.1) (type solid)) (layer F.Fab))
  (fp_line (start -5.13 -5.13) (end -5.13 5.13)
    (stroke (width 0.05) (type solid)) (layer F.CrtYd))
  (fp_line (start -5.13 5.13) (end 5.13 5.13)
    (stroke (width 0.05) (type solid)) (layer F.CrtYd))
  (fp_line (start 5.13 5.13) (end 5.13 -5.13)
    (stroke (width 0.05) (type solid)) (layer F.CrtYd))
  (fp_line (start 5.13 -5.13) (end -5.13 -5.13)
    (stroke (width 0.05) (type solid)) (layer F.CrtYd))
  (pad 1 smd roundrect (at -4.4375 -3.75) (size 0.875 0.25) (layers F.Cu F.Mask F.Paste) (roundrect_rratio 0.25))
  (pad 2 smd roundrect (at -4.4375 -3.25) (size 0.875 0.25) (layers F.Cu F.Mask F.Paste) (roundrect_rratio 0.25))
  (pad 3 smd roundrect (at -4.4375 -2.75) (size 0.875 0.25) (layers F.Cu F.Mask F.Paste) (roundrect_rratio 0.25))
  (pad 4 smd roundrect (at -4.4375 -2.25) (size 0.875 0.25) (layers F.Cu F.Mask F.Paste) (roundrect_rratio 0.25))
  (pad 5 smd roundrect (at -4.4375 -1.75) (size 0.875 0.25) (layers F.Cu F.Mask F.Paste) (roundrect_rratio 0.25))
  (pad 6 smd roundrect (at -4.4375 -1.25) (size 0.875 0.25) (layers F.Cu F.Mask F.Paste) (roundrect_rratio 0.25))
  (pad 7 smd roundrect (at -4.4375 -0.75) (size 0.875 0.25) (layers F.Cu F.Mask F.Paste) (roundrect_rratio 0.25))
  (pad 8 smd roundrect (at -4.4375 -0.25) (size 0.875 0.25) (layers F.Cu F.Mask F.Paste) (roundrect_rratio 0.25))
  (pad 9 smd roundrect (at -4.4375 0.25) (size 0.875 0.25) (layers F.Cu F.Mask F.Paste) (roundrect_rratio 0.25))
  (pad 10 smd roundrect (at -4.4375 0.75) (size 0.875 0.25) (layers F.Cu F.Mask F.Paste) (roundrect_rratio 0.25))
  (pad 11 smd roundrect (at -4.4375 1.25) (size 0.875 0.25) (layers F.Cu F.Mask F.Paste) (roundrect_rratio 0.25))
  (pad 12 smd roundrect (at -4.4375 1.75) (size 0.875 0.25) (layers F.Cu F.Mask F.Paste) (roundrect_rratio 0.25))
  (pad 13 smd roundrect (at -4.4375 2.25) (size 0.875 0.25) (layers F.Cu F.Mask F.Paste) (roundrect_rratio 0.25))
  (pad 14 smd roundrect (at -4.4375 2.75) (size 0.875 0.25) (layers F.Cu F.Mask F.Paste) (roundrect_rratio 0.25))
  (pad 15 smd roundrect (at -4.4375 3.25) (size 0.875 0.25) (layers F.Cu F.Mask F.Paste) (roundrect_rratio 0.25))
  (pad 16 smd roundrect (at -4.4375 3.75) (size 0.875 0.25) (layers F.Cu F.Mask F.Paste) (roundrect_rratio 0.25))
  (pad 17 smd roundrect (at -3.75 4.4375) (size 0.25 0.875) (layers F.Cu F.Mask F.Paste) (roundrect_rratio 0.25))
  (pad 18 smd roundrect (at -3.25 4.4375) (size 0.25 0.875) (layers F.Cu F.Mask F.Paste) (roundrect_rratio 0.25))
  (pad 19 smd roundrect (at -2.75 4.4375) (size 0.25 0.875) (layers F.Cu F.Mask F.Paste) (roundrect_rratio 0.25))
  (pad 20 smd roundrect (at -2.25 4.4375) (size 0.25 0.875) (layers F.Cu F.Mask F.Paste) (roundrect_rratio 0.25))
  (pad 21 smd roundrect (at -1.75 4.4375) (size 0.25 0.875) (layers F.Cu F.Mask F.Paste) (roundrect_rratio 0.25))
  (pad 22 smd roundrect (at -1.25 4.4375) (size 0.25 0.875) (layers F.Cu F.Mask F.Paste) (roundrect_rratio 0.25))
  (pad 23 smd roundrect (at -0.75 4.4375) (size 0.25 0.875) (layers F.Cu F.Mask F.Paste) (roundrect_rratio 0.25))
  (pad 24 smd roundrect (at -0.25 4.4375) (size 0.25 0.875) (layers F.Cu F.Mask F.Paste) (roundrect_rratio 0.25))
  (pad 25 smd roundrect (at 0.25 4.4375) (size 0.25 0.875) (layers F.Cu F.Mask F.Paste) (roundrect_rratio 0.25))
  (pad 26 smd roundrect (at 0.75 4.4375) (size 0.25 0.875) (layers F.Cu F.Mask F.Paste) (roundrect_rratio 0.25))
  (pad 27 smd roundrect (at 1.25 4.4375) (size 0.25 0.875) (layers F.Cu F.Mask F.Paste) (roundrect_rratio 0.25))
  (pad 28 smd roundrect (at 1.75 4.4375) (size 0.25 0.875) (layers F.Cu F.Mask F.Paste) (roundrect_rratio 0.25))
  (pad 29 smd roundrect (at 2.25 4.4375) (size 0.25 0.875) (layers F.Cu F.Mask F.Paste) (roundrect_rratio 0.25))
  (pad 30 smd roundrect (at 2.75 4.4375) (size 0.25 0.875) (layers F.Cu F.Mask F.Paste) (roundrect_rratio 0.25))
  (pad 31 smd roundrect (at 3.25 4.4375) (size 0.25 0.875) (layers F.Cu F.Mask F.Paste) (roundrect_rratio 0.25))
  (pad 32 smd roundrect (at 3.75 4.4375) (size 0.25 0.875) (layers F.Cu F.Mask F.Paste) (roundrect_rratio 0.25))
  (pad 33 smd roundrect (at 4.4375 3.75) (size 0.875 0.25) (layers F.Cu F.Mask F.Paste) (roundrect_rratio 0.25))
  (pad 34 smd roundrect (at 4.4375 3.25) (size 0.875 0.25) (layers F.Cu F.Mask F.Paste) (roundrect_rratio 0.25))
  (pad 35 smd roundrect (at 4.4375 2.75) (size 0.875 0.25) (layers F.Cu F.Mask F.Paste) (roundrect_rratio 0.25))
  (pad 36 smd roundrect (at 4.4375 2.25) (size 0.875 0.25) (layers F.Cu F.Mask F.Paste) (roundrect_rratio 0.25))
  (pad 37 smd roundrect (at 4.4375 1.75) (size 0.875 0.25) (layers F.Cu F.Mask F.Paste) (roundrect_rratio 0.25))
  (pad 38 smd roundrect (at 4.4375 1.25) (size 0.875 0.25) (layers F.Cu F.Mask F.Paste) (roundrect_rratio 0.25))
  (pad 39 smd roundrect (at 4.4375 0.75) (size 0.875 0.25) (layers F.Cu F.Mask F.Paste) (roundrect_rratio 0.25))
  (pad 40 smd roundrect (at 4.4375 0.25) (size 0.875 0.25) (layers F.Cu F.Mask F.Paste) (roundrect_rratio 0.25))
  (pad 41 smd roundrect (at 4.4375 -0.25) (size 0.875 0.25) (layers F.Cu F.Mask F.Paste) (roundrect_rratio 0.25))
  (pad 42 smd roundrect (at 4.4375 -0.75) (size 0.875 0.25) (layers F.Cu F.Mask F.Paste) (roundrect_rratio 0.25))
  (pad 43 smd roundrect (at 4.4375 -1.25) (size 0.875 0.25) (layers F.Cu F.Mask F.Paste) (roundrect_rratio 0.25))
  (pad 44 smd roundrect (at 4.4375 -1.75) (size 0.875 0.25) (layers F.Cu F.Mask F.Paste) (roundrect_rratio 0.25))
  (pad 45 smd roundrect (at 4.4375 -2.25) (size 0.875 0.25) (layers F.Cu F.Mask F.Paste) (roundrect_rratio 0.25))
  (pad 46 smd roundrect (at 4.4375 -2.75) (size 0.875 0.25) (layers F.Cu F.Mask F.Paste) (roundrect_rratio 0.25))
  (pad 47 smd roundrect (at 4.4375 -3.25) (size 0.875 0.25) (layers F.Cu F.Mask F.Paste) (roundrect_rratio 0.25))
  (pad 48 smd roundrect (at 4.4375 -3.75) (size 0.875 0.25) (layers F.Cu F.Mask F.Paste) (roundrect_rratio 0.25))
  (pad 49 smd roundrect (at 3.75 -4.4375) (size 0.25 0.875) (layers F.Cu F.Mask F.Paste) (roundrect_rratio 0.25))
  (pad 50 smd roundrect (at 3.25 -4.4375) (size 0.25 0.875) (layers F.Cu F.Mask F.Paste) (roundrect_rratio 0.25))
  (pad 51 smd roundrect (at 2.75 -4.4375) (size 0.25 0.875) (layers F.Cu F.Mask F.Paste) (roundrect_rratio 0.25))
  (pad 52 smd roundrect (at 2.25 -4.4375) (size 0.25 0.875) (layers F.Cu F.Mask F.Paste) (roundrect_rratio 0.25))
  (pad 53 smd roundrect (at 1.75 -4.4375) (size 0.25 0.875) (layers F.Cu F.Mask F.Paste) (roundrect_rratio 0.25))
  (pad 54 smd roundrect (at 1.25 -4.4375) (size 0.25 0.875) (layers F.Cu F.Mask F.Paste) (roundrect_rratio 0.25))
  (pad 55 smd roundrect (at 0.75 -4.4375) (size 0.25 0.875) (layers F.Cu F.Mask F.Paste) (roundrect_rratio 0.25))
  (pad 56 smd roundrect (at 0.25 -4.4375) (size 0.25 0.875) (layers F.Cu F.Mask F.Paste) (roundrect_rratio 0.25))
  (pad 57 smd roundrect (at -0.25 -4.4375) (size 0.25 0.875) (layers F.Cu F.Mask F.Paste) (roundrect_rratio 0.25))
  (pad 58 smd roundrect (at -0.75 -4.4375) (size 0.25 0.875) (layers F.Cu F.Mask F.Paste) (roundrect_rratio 0.25))
  (pad 59 smd roundrect (at -1.25 -4.4375) (size 0.25 0.875) (layers F.Cu F.Mask F.Paste) (roundrect_rratio 0.25))
  (pad 60 smd roundrect (at -1.75 -4.4375) (size 0.25 0.875) (layers F.Cu F.Mask F.Paste) (roundrect_rratio 0.25))
  (pad 61 smd roundrect (at -2.25 -4.4375) (size 0.25 0.875) (layers F.Cu F.Mask F.Paste) (roundrect_rratio 0.25))
  (pad 62 smd roundrect (at -2.75 -4.4375) (size 0.25 0.875) (layers F.Cu F.Mask F.Paste) (roundrect_rratio 0.25))
  (pad 63 smd roundrect (at -3.25 -4.4375) (size 0.25 0.875) (layers F.Cu F.Mask F.Paste) (roundrect_rratio 0.25))
  (pad 64 smd roundrect (at -3.75 -4.4375) (size 0.25 0.875) (layers F.Cu F.Mask F.Paste) (roundrect_rratio 0.25))
  (pad 65 smd rect (at 0 0) (size 4.25 4.25) (layers F.Cu F.Mask))
  (pad 65 thru_hole circle (at -1.6 -1.6) (size 0.5 0.5) (drill 0.2) (layers *.Cu))
  (pad 65 thru_hole circle (at -0.8 -1.6) (size 0.5 0.5) (drill 0.2) (layers *.Cu))
  (pad 65 thru_hole circle (at 0 -1.6) (size 0.5 0.5) (drill 0.2) (layers *.Cu))
  (pad 65 thru_hole circle (at 0.8 -1.6) (size 0.5 0.5) (drill 0.2) (layers *.Cu))
  (pad 65 thru_hole circle (at 1.6 -1.6) (size 0.5 0.5) (drill 0.2) (layers *.Cu))
  (pad 65 thru_hole circle (at -1.6 -0.8) (size 0.5 0.5) (drill 0.2) (layers *.Cu))
  (pad 65 thru_hole circle (at -0.8 -0.8) (size 0.5 0.5) (drill 0.2) (layers *.Cu))
  (pad 65 thru_hole circle (at 0 -0.8) (size 0.5 0.5) (drill 0.2) (layers *.Cu))
  (pad 65 thru_hole circle (at 0.8 -0.8) (size 0.5 0.5) (drill 0.2) (layers *.Cu))
  (pad 65 thru_hole circle (at 1.6 -0.8) (size 0.5 0.5) (drill 0.2) (layers *.Cu))
  (pad 65 thru_hole circle (at -1.6 0) (size 0.5 0.5) (drill 0.2) (layers *.Cu))
  (pad 65 thru_hole circle (at -0.8 0) (size 0.5 0.5) (drill 0.2) (layers *.Cu))
  (pad 65 thru_hole circle (at 0 0) (size 0.5 0.5) (drill 0.2) (layers *.Cu))
  (pad 65 thru_hole circle (at 0.8 0) (size 0.5 0.5) (drill 0.2) (layers *.Cu))
  (pad 65 thru_hole circle (at 1.6 0) (size 0.5 0.5) (drill 0.2) (layers *.Cu))
  (pad 65 thru_hole circle (at -1.6 0.8) (size 0.5 0.5) (drill 0.2) (layers *.Cu))
  (pad 65 thru_hole circle (at -0.8 0.8) (size 0.5 0.5) (drill 0.2) (layers *.Cu))
  (pad 65 thru_hole circle (at 0 0.8) (size 0.5 0.5) (drill 0.2) (layers *.Cu))
  (pad 65 thru_hole circle (at 0.8 0.8) (size 0.5 0.5) (drill 0.2) (layers *.Cu))
  (pad 65 thru_hole circle (at 1.6 0.8) (size 0.5 0.5) (drill 0.2) (layers *.Cu))
  (pad 65 thru_hole circle (at -1.6 1.6) (size 0.5 0.5) (drill 0.2) (layers *.Cu))
  (pad 65 thru_hole circle (at -0.8 1.6) (size 0.5 0.5) (drill 0.2) (layers *.Cu))
  (pad 65 thru_hole circle (at 0 1.6) (size 0.5 0.5) (drill 0.2) (layers *.Cu))
  (pad 65 thru_hole circle (at 0.8 1.6) (size 0.5 0.5) (drill 0.2) (layers *.Cu))
  (pad 65 thru_hole circle (at 1.6 1.6) (size 0.5 0.5) (drill 0.2) (layers *.Cu))
  (pad 65 smd rect (at 0 0) (size 3.7 3.7) (layers B.Cu))
  (pad "" smd custom (at -1.2 -1.2) (size 0.554596 0.554596) (layers F.Paste)
    (options (clearance outline) (anchor circle))
    (primitives
      (gr_poly (pts
         (xy -0.232106 -0.157228) (xy -0.157228 -0.232106) (xy 0.157228 -0.232106) (xy 0.232106 -0.157228)
         (xy 0.232106 0.157228) (xy 0.157228 0.232106) (xy -0.157228 0.232106) (xy -0.232106 0.157228)) (width 0.180769))
    ))
  (pad "" smd custom (at -1.2 -0.4) (size 0.554596 0.554596) (layers F.Paste)
    (options (clearance outline) (anchor circle))
    (primitives
      (gr_poly (pts
         (xy -0.232106 -0.157228) (xy -0.157228 -0.232106) (xy 0.157228 -0.232106) (xy 0.232106 -0.157228)
         (xy 0.232106 0.157228) (xy 0.157228 0.232106) (xy -0.157228 0.232106) (xy -0.232106 0.157228)) (width 0.180769))
    ))
  (pad "" smd custom (at -1.2 0.4) (size 0.554596 0.554596) (layers F.Paste)
    (options (clearance outline) (anchor circle))
    (primitives
      (gr_poly (pts
         (xy -0.232106 -0.157228) (xy -0.157228 -0.232106) (xy 0.157228 -0.232106) (xy 0.232106 -0.157228)
         (xy 0.232106 0.157228) (xy 0.157228 0.232106) (xy -0.157228 0.232106) (xy -0.232106 0.157228)) (width 0.180769))
    ))
  (pad "" smd custom (at -1.2 1.2) (size 0.554596 0.554596) (layers F.Paste)
    (options (clearance outline) (anchor circle))
    (primitives
      (gr_poly (pts
         (xy -0.232106 -0.157228) (xy -0.157228 -0.232106) (xy 0.157228 -0.232106) (xy 0.232106 -0.157228)
         (xy 0.232106 0.157228) (xy 0.157228 0.232106) (xy -0.157228 0.232106) (xy -0.232106 0.157228)) (width 0.180769))
    ))
  (pad "" smd custom (at -0.4 -1.2) (size 0.554596 0.554596) (layers F.Paste)
    (options (clearance outline) (anchor circle))
    (primitives
      (gr_poly (pts
         (xy -0.232106 -0.157228) (xy -0.157228 -0.232106) (xy 0.157228 -0.232106) (xy 0.232106 -0.157228)
         (xy 0.232106 0.157228) (xy 0.157228 0.232106) (xy -0.157228 0.232106) (xy -0.232106 0.157228)) (width 0.180769))
    ))
  (pad "" smd custom (at -0.4 -0.4) (size 0.554596 0.554596) (layers F.Paste)
    (options (clearance outline) (anchor circle))
    (primitives
      (gr_poly (pts
         (xy -0.232106 -0.157228) (xy -0.157228 -0.232106) (xy 0.157228 -0.232106) (xy 0.232106 -0.157228)
         (xy 0.232106 0.157228) (xy 0.157228 0.232106) (xy -0.157228 0.232106) (xy -0.232106 0.157228)) (width 0.180769))
    ))
  (pad "" smd custom (at -0.4 0.4) (size 0.554596 0.554596) (layers F.Paste)
    (options (clearance outline) (anchor circle))
    (primitives
      (gr_poly (pts
         (xy -0.232106 -0.157228) (xy -0.157228 -0.232106) (xy 0.157228 -0.232106) (xy 0.232106 -0.157228)
         (xy 0.232106 0.157228) (xy 0.157228 0.232106) (xy -0.157228 0.232106) (xy -0.232106 0.157228)) (width 0.180769))
    ))
  (pad "" smd custom (at -0.4 1.2) (size 0.554596 0.554596) (layers F.Paste)
    (options (clearance outline) (anchor circle))
    (primitives
      (gr_poly (pts
         (xy -0.232106 -0.157228) (xy -0.157228 -0.232106) (xy 0.157228 -0.232106) (xy 0.232106 -0.157228)
         (xy 0.232106 0.157228) (xy 0.157228 0.232106) (xy -0.157228 0.232106) (xy -0.232106 0.157228)) (width 0.180769))
    ))
  (pad "" smd custom (at 0.4 -1.2) (size 0.554596 0.554596) (layers F.Paste)
    (options (clearance outline) (anchor circle))
    (primitives
      (gr_poly (pts
         (xy -0.232106 -0.157228) (xy -0.157228 -0.232106) (xy 0.157228 -0.232106) (xy 0.232106 -0.157228)
         (xy 0.232106 0.157228) (xy 0.157228 0.232106) (xy -0.157228 0.232106) (xy -0.232106 0.157228)) (width 0.180769))
    ))
  (pad "" smd custom (at 0.4 -0.4) (size 0.554596 0.554596) (layers F.Paste)
    (options (clearance outline) (anchor circle))
    (primitives
      (gr_poly (pts
         (xy -0.232106 -0.157228) (xy -0.157228 -0.232106) (xy 0.157228 -0.232106) (xy 0.232106 -0.157228)
         (xy 0.232106 0.157228) (xy 0.157228 0.232106) (xy -0.157228 0.232106) (xy -0.232106 0.157228)) (width 0.180769))
    ))
  (pad "" smd custom (at 0.4 0.4) (size 0.554596 0.554596) (layers F.Paste)
    (options (clearance outline) (anchor circle))
    (primitives
      (gr_poly (pts
         (xy -0.232106 -0.157228) (xy -0.157228 -0.232106) (xy 0.157228 -0.232106) (xy 0.232106 -0.157228)
         (xy 0.232106 0.157228) (xy 0.157228 0.232106) (xy -0.157228 0.232106) (xy -0.232106 0.157228)) (width 0.180769))
    ))
  (pad "" smd custom (at 0.4 1.2) (size 0.554596 0.554596) (layers F.Paste)
    (options (clearance outline) (anchor circle))
    (primitives
      (gr_poly (pts
         (xy -0.232106 -0.157228) (xy -0.157228 -0.232106) (xy 0.157228 -0.232106) (xy 0.232106 -0.157228)
         (xy 0.232106 0.157228) (xy 0.157228 0.232106) (xy -0.157228 0.232106) (xy -0.232106 0.157228)) (width 0.180769))
    ))
  (pad "" smd custom (at 1.2 -1.2) (size 0.554596 0.554596) (layers F.Paste)
    (options (clearance outline) (anchor circle))
    (primitives
      (gr_poly (pts
         (xy -0.232106 -0.157228) (xy -0.157228 -0.232106) (xy 0.157228 -0.232106) (xy 0.232106 -0.157228)
         (xy 0.232106 0.157228) (xy 0.157228 0.232106) (xy -0.157228 0.232106) (xy -0.232106 0.157228)) (width 0.180769))
    ))
  (pad "" smd custom (at 1.2 -0.4) (size 0.554596 0.554596) (layers F.Paste)
    (options (clearance outline) (anchor circle))
    (primitives
      (gr_poly (pts
         (xy -0.232106 -0.157228) (xy -0.157228 -0.232106) (xy 0.157228 -0.232106) (xy 0.232106 -0.157228)
         (xy 0.232106 0.157228) (xy 0.157228 0.232106) (xy -0.157228 0.232106) (xy -0.232106 0.157228)) (width 0.180769))
    ))
  (pad "" smd custom (at 1.2 0.4) (size 0.554596 0.554596) (layers F.Paste)
    (options (clearance outline) (anchor circle))
    (primitives
      (gr_poly (pts
         (xy -0.232106 -0.157228) (xy -0.157228 -0.232106) (xy 0.157228 -0.232106) (xy 0.232106 -0.157228)
         (xy 0.232106 0.157228) (xy 0.157228 0.232106) (xy -0.157228 0.232106) (xy -0.232106 0.157228)) (width 0.180769))
    ))
  (pad "" smd custom (at 1.2 1.2) (size 0.554596 0.554596) (layers F.Paste)
    (options (clearance outline) (anchor circle))
    (primitives
      (gr_poly (pts
         (xy -0.232106 -0.157228) (xy -0.157228 -0.232106) (xy 0.157228 -0.232106) (xy 0.232106 -0.157228)
         (xy 0.232106 0.157228) (xy 0.157228 0.232106) (xy -0.157228 0.232106) (xy -0.232106 0.157228)) (width 0.180769))
    ))
  (pad "" smd custom (at -1.8625 -1.2) (size 0.314044 0.314044) (layers F.Paste)
    (options (clearance outline) (anchor circle))
    (primitives
      (gr_poly (pts
         (xy -0.105817 -0.216673) (xy 0.013336 -0.216673) (xy 0.105817 -0.124192) (xy 0.105817 0.124192)
         (xy 0.013336 0.216673) (xy -0.105817 0.216673)) (width 0.211634))
    ))
  (pad "" smd custom (at -1.8625 -0.4) (size 0.314044 0.314044) (layers F.Paste)
    (options (clearance outline) (anchor circle))
    (primitives
      (gr_poly (pts
         (xy -0.105817 -0.216673) (xy 0.013336 -0.216673) (xy 0.105817 -0.124192) (xy 0.105817 0.124192)
         (xy 0.013336 0.216673) (xy -0.105817 0.216673)) (width 0.211634))
    ))
  (pad "" smd custom (at -1.8625 0.4) (size 0.314044 0.314044) (layers F.Paste)
    (options (clearance outline) (anchor circle))
    (primitives
      (gr_poly (pts
         (xy -0.105817 -0.216673) (xy 0.013336 -0.216673) (xy 0.105817 -0.124192) (xy 0.105817 0.124192)
         (xy 0.013336 0.216673) (xy -0.105817 0.216673)) (width 0.211634))
    ))
  (pad "" smd custom (at -1.8625 1.2) (size 0.314044 0.314044) (layers F.Paste)
    (options (clearance outline) (anchor circle))
    (primitives
      (gr_poly (pts
         (xy -0.105817 -0.216673) (xy 0.013336 -0.216673) (xy 0.105817 -0.124192) (xy 0.105817 0.124192)
         (xy 0.013336 0.216673) (xy -0.105817 0.216673)) (width 0.211634))
    ))
  (pad "" smd custom (at 1.8625 -1.2) (size 0.314044 0.314044) (layers F.Paste)
    (options (clearance outline) (anchor circle))
    (primitives
      (gr_poly (pts
         (xy -0.105817 -0.124192) (xy -0.013336 -0.216673) (xy 0.105817 -0.216673) (xy 0.105817 0.216673)
         (xy -0.013336 0.216673) (xy -0.105817 0.124192)) (width 0.211634))
    ))
  (pad "" smd custom (at 1.8625 -0.4) (size 0.314044 0.314044) (layers F.Paste)
    (options (clearance outline) (anchor circle))
    (primitives
      (gr_poly (pts
         (xy -0.105817 -0.124192) (xy -0.013336 -0.216673) (xy 0.105817 -0.216673) (xy 0.105817 0.216673)
         (xy -0.013336 0.216673) (xy -0.105817 0.124192)) (width 0.211634))
    ))
  (pad "" smd custom (at 1.8625 0.4) (size 0.314044 0.314044) (layers F.Paste)
    (options (clearance outline) (anchor circle))
    (primitives
      (gr_poly (pts
         (xy -0.105817 -0.124192) (xy -0.013336 -0.216673) (xy 0.105817 -0.216673) (xy 0.105817 0.216673)
         (xy -0.013336 0.216673) (xy -0.105817 0.124192)) (width 0.211634))
    ))
  (pad "" smd custom (at 1.8625 1.2) (size 0.314044 0.314044) (layers F.Paste)
    (options (clearance outline) (anchor circle))
    (primitives
      (gr_poly (pts
         (xy -0.105817 -0.124192) (xy -0.013336 -0.216673) (xy 0.105817 -0.216673) (xy 0.105817 0.216673)
         (xy -0.013336 0.216673) (xy -0.105817 0.124192)) (width 0.211634))
    ))
  (pad "" smd custom (at -1.2 -1.8625) (size 0.314044 0.314044) (layers F.Paste)
    (options (clearance outline) (anchor circle))
    (primitives
      (gr_poly (pts
         (xy -0.216673 -0.105817) (xy 0.216673 -0.105817) (xy 0.216673 0.013336) (xy 0.124192 0.105817)
         (xy -0.124192 0.105817) (xy -0.216673 0.013336)) (width 0.211634))
    ))
  (pad "" smd custom (at -0.4 -1.8625) (size 0.314044 0.314044) (layers F.Paste)
    (options (clearance outline) (anchor circle))
    (primitives
      (gr_poly (pts
         (xy -0.216673 -0.105817) (xy 0.216673 -0.105817) (xy 0.216673 0.013336) (xy 0.124192 0.105817)
         (xy -0.124192 0.105817) (xy -0.216673 0.013336)) (width 0.211634))
    ))
  (pad "" smd custom (at 0.4 -1.8625) (size 0.314044 0.314044) (layers F.Paste)
    (options (clearance outline) (anchor circle))
    (primitives
      (gr_poly (pts
         (xy -0.216673 -0.105817) (xy 0.216673 -0.105817) (xy 0.216673 0.013336) (xy 0.124192 0.105817)
         (xy -0.124192 0.105817) (xy -0.216673 0.013336)) (width 0.211634))
    ))
  (pad "" smd custom (at 1.2 -1.8625) (size 0.314044 0.314044) (layers F.Paste)
    (options (clearance outline) (anchor circle))
    (primitives
      (gr_poly (pts
         (xy -0.216673 -0.105817) (xy 0.216673 -0.105817) (xy 0.216673 0.013336) (xy 0.124192 0.105817)
         (xy -0.124192 0.105817) (xy -0.216673 0.013336)) (width 0.211634))
    ))
  (pad "" smd custom (at -1.2 1.8625) (size 0.314044 0.314044) (layers F.Paste)
    (options (clearance outline) (anchor circle))
    (primitives
      (gr_poly (pts
         (xy -0.216673 -0.013336) (xy -0.124192 -0.105817) (xy 0.124192 -0.105817) (xy 0.216673 -0.013336)
         (xy 0.216673 0.105817) (xy -0.216673 0.105817)) (width 0.211634))
    ))
  (pad "" smd custom (at -0.4 1.8625) (size 0.314044 0.314044) (layers F.Paste)
    (options (clearance outline) (anchor circle))
    (primitives
      (gr_poly (pts
         (xy -0.216673 -0.013336) (xy -0.124192 -0.105817) (xy 0.124192 -0.105817) (xy 0.216673 -0.013336)
         (xy 0.216673 0.105817) (xy -0.216673 0.105817)) (width 0.211634))
    ))
  (pad "" smd custom (at 0.4 1.8625) (size 0.314044 0.314044) (layers F.Paste)
    (options (clearance outline) (anchor circle))
    (primitives
      (gr_poly (pts
         (xy -0.216673 -0.013336) (xy -0.124192 -0.105817) (xy 0.124192 -0.105817) (xy 0.216673 -0.013336)
         (xy 0.216673 0.105817) (xy -0.216673 0.105817)) (width 0.211634))
    ))
  (pad "" smd custom (at 1.2 1.8625) (size 0.314044 0.314044) (layers F.Paste)
    (options (clearance outline) (anchor circle))
    (primitives
      (gr_poly (pts
         (xy -0.216673 -0.013336) (xy -0.124192 -0.105817) (xy 0.124192 -0.105817) (xy 0.216673 -0.013336)
         (xy 0.216673 0.105817) (xy -0.216673 0.105817)) (width 0.211634))
    ))
  (pad "" smd custom (at -1.8625 -1.8625) (size 0.295204 0.295204) (layers F.Paste)
    (options (clearance outline) (anchor circle))
    (primitives
      (gr_poly (pts
         (xy -0.105817 -0.105817) (xy 0.105817 -0.105817) (xy 0.105817 -0.013308) (xy -0.013308 0.105817)
         (xy -0.105817 0.105817)) (width 0.211634))
    ))
  (pad "" smd custom (at -1.8625 1.8625) (size 0.295204 0.295204) (layers F.Paste)
    (options (clearance outline) (anchor circle))
    (primitives
      (gr_poly (pts
         (xy -0.105817 -0.105817) (xy -0.013308 -0.105817) (xy 0.105817 0.013308) (xy 0.105817 0.105817)
         (xy -0.105817 0.105817)) (width 0.211634))
    ))
  (pad "" smd custom (at 1.8625 -1.8625) (size 0.295204 0.295204) (layers F.Paste)
    (options (clearance outline) (anchor circle))
    (primitives
      (gr_poly (pts
         (xy -0.105817 -0.105817) (xy 0.105817 -0.105817) (xy 0.105817 0.105817) (xy 0.013308 0.105817)
         (xy -0.105817 -0.013308)) (width 0.211634))
    ))
  (pad "" smd custom (at 1.8625 1.8625) (size 0.295204 0.295204) (layers F.Paste)
    (options (clearance outline) (anchor circle))
    (primitives
      (gr_poly (pts
         (xy -0.105817 0.013308) (xy 0.013308 -0.105817) (xy 0.105817 -0.105817) (xy 0.105817 0.105817)
         (xy -0.105817 0.105817)) (width 0.211634))
    ))
  (fp_text user ${REFERENCE} (at 0 0) (layer F.Fab)
    (effects (font (size 1 1) (thickness 0.15)))
  )
  (model ${KICAD7_3DMODEL_DIR}/Package_DFN_QFN.3dshapes/Texas_RGC0064B_VQFN-64-1EP_9x9mm_P0.5mm_EP4.25x4.25mm.wrl
    (offset (xyz 0 0 0))
    (scale (xyz 1 1 1))
    (rotate (xyz 0 0 0))
  )
)
