(footprint "Efinix_WLCSP-80_4.4567x3.5569mm_Layout10x8_P0.4mm" (version 20221018) (generator pcbnew)
  (layer "F.Cu")
  (descr "WLCSP-80, NSMD pad definition Page 54, 4.4567x3.5569mm, 80 Ball, 10x8 Layout, 0.4mm Pitch, https://www.efinixinc.com/docs/trion-packaging-ug-v4.9.pdf")
  (tags "CSP 80 0.4 80-ball WLCSP")
  (solder_mask_margin 0.0375)
  (attr smd)
  (fp_text reference "REF**" (at 0 -2.77845) (layer "F.SilkS")
      (effects (font (size 1 1) (thickness 0.15)))
    (tstamp 2805fc7f-57ba-4456-a7a1-9a9cc82217f6)
  )
  (fp_text value "Efinix_WLCSP-80_4.4567x3.5569mm_Layout10x8_P0.4mm" (at 0 2.77845) (layer "F.Fab")
      (effects (font (size 1 1) (thickness 0.15)))
    (tstamp 54ba7cbf-e543-4495-89c7-d19cc026885f)
  )
  (fp_text user "${REFERENCE}" (at 0 0) (layer "F.Fab")
      (effects (font (size 1 1) (thickness 0.15)))
    (tstamp ae8bff37-475c-42ae-ad33-1873066127ca)
  )
  (fp_line (start -2.33835 1.88845) (end -2.33835 -0.999225)
    (stroke (width 0.12) (type solid)) (layer "F.SilkS") (tstamp 79f47939-6983-48e8-885c-18da15a3bf69))
  (fp_line (start -1.449125 -1.88845) (end 2.33835 -1.88845)
    (stroke (width 0.12) (type solid)) (layer "F.SilkS") (tstamp 937a3ec2-dfd9-47f8-9831-04750eef96b4))
  (fp_line (start 2.33835 -1.88845) (end 2.33835 1.88845)
    (stroke (width 0.12) (type solid)) (layer "F.SilkS") (tstamp baf89614-1d0f-4410-b809-3c847cb9680c))
  (fp_line (start 2.33835 1.88845) (end -2.33835 1.88845)
    (stroke (width 0.12) (type solid)) (layer "F.SilkS") (tstamp 453b9c80-8742-4afc-8d8b-f6c06617e6c1))
  (fp_line (start -3.23 -2.78) (end -3.23 2.78)
    (stroke (width 0.05) (type solid)) (layer "F.CrtYd") (tstamp 9b517c3f-5cdb-447e-a6f4-8bb356d354cc))
  (fp_line (start -3.23 2.78) (end 3.23 2.78)
    (stroke (width 0.05) (type solid)) (layer "F.CrtYd") (tstamp af177192-9a75-4c7d-8bb4-0b58c37bb18b))
  (fp_line (start 3.23 -2.78) (end -3.23 -2.78)
    (stroke (width 0.05) (type solid)) (layer "F.CrtYd") (tstamp b0e6c8e3-1f65-4396-844c-f0bc30f3ef3c))
  (fp_line (start 3.23 2.78) (end 3.23 -2.78)
    (stroke (width 0.05) (type solid)) (layer "F.CrtYd") (tstamp e9640bfd-9364-4000-a4ae-6cd1798dbdf2))
  (fp_line (start -2.22835 -0.889225) (end -1.339125 -1.77845)
    (stroke (width 0.1) (type solid)) (layer "F.Fab") (tstamp 06af46df-c577-413d-a361-39722ade1875))
  (fp_line (start -2.22835 1.77845) (end -2.22835 -0.889225)
    (stroke (width 0.1) (type solid)) (layer "F.Fab") (tstamp b43aa15a-53ed-4a57-85d2-ec9ba1d84be1))
  (fp_line (start -1.339125 -1.77845) (end 2.22835 -1.77845)
    (stroke (width 0.1) (type solid)) (layer "F.Fab") (tstamp 2fbe6c2f-9299-466f-9334-f67a757c0c9e))
  (fp_line (start 2.22835 -1.77845) (end 2.22835 1.77845)
    (stroke (width 0.1) (type solid)) (layer "F.Fab") (tstamp 1f5a0d7f-6d8b-4343-96f1-393a6168b65c))
  (fp_line (start 2.22835 1.77845) (end -2.22835 1.77845)
    (stroke (width 0.1) (type solid)) (layer "F.Fab") (tstamp 4775804e-36e4-4a78-b7b7-b3f99b69d798))
  (pad "A1" smd circle (at -1.8 -1.4) (size 0.175 0.175) (layers "F.Cu" "F.Paste" "F.Mask") (tstamp 2359f126-458c-4349-bdc1-86c9d037148b))
  (pad "A2" smd circle (at -1.4 -1.4) (size 0.175 0.175) (layers "F.Cu" "F.Paste" "F.Mask") (tstamp 04ca6918-52c8-414e-a98a-b320b9ada754))
  (pad "A3" smd circle (at -1 -1.4) (size 0.175 0.175) (layers "F.Cu" "F.Paste" "F.Mask") (tstamp ed6c484c-b022-4e31-adea-3f61851be408))
  (pad "A4" smd circle (at -0.6 -1.4) (size 0.175 0.175) (layers "F.Cu" "F.Paste" "F.Mask") (tstamp 0c911e48-2c29-4e91-8cb0-009666fdb319))
  (pad "A5" smd circle (at -0.2 -1.4) (size 0.175 0.175) (layers "F.Cu" "F.Paste" "F.Mask") (tstamp 507e1e90-caf4-43a6-84c9-c1268be53892))
  (pad "A6" smd circle (at 0.2 -1.4) (size 0.175 0.175) (layers "F.Cu" "F.Paste" "F.Mask") (tstamp 2a02b76f-0f46-416e-82e4-a50b40512437))
  (pad "A7" smd circle (at 0.6 -1.4) (size 0.175 0.175) (layers "F.Cu" "F.Paste" "F.Mask") (tstamp 59e13dba-dfa6-48da-877b-588e8ebd8141))
  (pad "A8" smd circle (at 1 -1.4) (size 0.175 0.175) (layers "F.Cu" "F.Paste" "F.Mask") (tstamp 418e3861-c12d-4c06-8def-b38042311e2b))
  (pad "A9" smd circle (at 1.4 -1.4) (size 0.175 0.175) (layers "F.Cu" "F.Paste" "F.Mask") (tstamp d3d3c802-2778-4f81-907b-e5987bf2b731))
  (pad "A10" smd circle (at 1.8 -1.4) (size 0.175 0.175) (layers "F.Cu" "F.Paste" "F.Mask") (tstamp bb0e2c97-8dee-473c-95ec-8a276f5d0873))
  (pad "B1" smd circle (at -1.8 -1) (size 0.175 0.175) (layers "F.Cu" "F.Paste" "F.Mask") (tstamp 04bdacdf-352e-48c4-b8ec-06fb5d77cf49))
  (pad "B2" smd circle (at -1.4 -1) (size 0.175 0.175) (layers "F.Cu" "F.Paste" "F.Mask") (tstamp 911a646c-cea0-4067-b558-7f892e14bbcc))
  (pad "B3" smd circle (at -1 -1) (size 0.175 0.175) (layers "F.Cu" "F.Paste" "F.Mask") (tstamp 7b6d4061-6e36-4650-b8ef-81afe90df743))
  (pad "B4" smd circle (at -0.6 -1) (size 0.175 0.175) (layers "F.Cu" "F.Paste" "F.Mask") (tstamp c94688bc-aae3-4aba-958e-6f4567153ea3))
  (pad "B5" smd circle (at -0.2 -1) (size 0.175 0.175) (layers "F.Cu" "F.Paste" "F.Mask") (tstamp e4546f85-86fa-4d54-992a-c1c0205a8950))
  (pad "B6" smd circle (at 0.2 -1) (size 0.175 0.175) (layers "F.Cu" "F.Paste" "F.Mask") (tstamp cea0550c-6ce4-49d6-aaa0-29e87110c171))
  (pad "B7" smd circle (at 0.6 -1) (size 0.175 0.175) (layers "F.Cu" "F.Paste" "F.Mask") (tstamp e5bdb9ad-9908-4e9c-802a-d328a9035b1f))
  (pad "B8" smd circle (at 1 -1) (size 0.175 0.175) (layers "F.Cu" "F.Paste" "F.Mask") (tstamp b2b5b5d4-8e4d-409b-a054-df7dd3fe85ed))
  (pad "B9" smd circle (at 1.4 -1) (size 0.175 0.175) (layers "F.Cu" "F.Paste" "F.Mask") (tstamp 98ac8863-e994-49d1-8829-9c5792def86a))
  (pad "B10" smd circle (at 1.8 -1) (size 0.175 0.175) (layers "F.Cu" "F.Paste" "F.Mask") (tstamp 46b90bfa-e191-40ed-b270-786fd1a06fcb))
  (pad "C1" smd circle (at -1.8 -0.6) (size 0.175 0.175) (layers "F.Cu" "F.Paste" "F.Mask") (tstamp acb6f527-b81c-491f-9d07-09a0554e607b))
  (pad "C2" smd circle (at -1.4 -0.6) (size 0.175 0.175) (layers "F.Cu" "F.Paste" "F.Mask") (tstamp 87c9717e-709f-49c0-8d88-9709a3d6eb13))
  (pad "C3" smd circle (at -1 -0.6) (size 0.175 0.175) (layers "F.Cu" "F.Paste" "F.Mask") (tstamp 750e168f-b1c2-4cf2-9a35-45744365d860))
  (pad "C4" smd circle (at -0.6 -0.6) (size 0.175 0.175) (layers "F.Cu" "F.Paste" "F.Mask") (tstamp 76dad0b7-15d1-4e15-9a78-b533751b154d))
  (pad "C5" smd circle (at -0.2 -0.6) (size 0.175 0.175) (layers "F.Cu" "F.Paste" "F.Mask") (tstamp 94efb858-78a7-49cb-8b8a-bac9620c6dda))
  (pad "C6" smd circle (at 0.2 -0.6) (size 0.175 0.175) (layers "F.Cu" "F.Paste" "F.Mask") (tstamp bf420bf5-dd1a-4063-b781-d41e12cc36b3))
  (pad "C7" smd circle (at 0.6 -0.6) (size 0.175 0.175) (layers "F.Cu" "F.Paste" "F.Mask") (tstamp a144eb81-e8ec-4b52-8f03-7c8d31f7c931))
  (pad "C8" smd circle (at 1 -0.6) (size 0.175 0.175) (layers "F.Cu" "F.Paste" "F.Mask") (tstamp 549e25f2-5b46-4994-a173-a66766f84580))
  (pad "C9" smd circle (at 1.4 -0.6) (size 0.175 0.175) (layers "F.Cu" "F.Paste" "F.Mask") (tstamp 06f19852-234a-47ec-9f01-9b738e1a1eb3))
  (pad "C10" smd circle (at 1.8 -0.6) (size 0.175 0.175) (layers "F.Cu" "F.Paste" "F.Mask") (tstamp a4a73b74-a75b-4966-8b7e-168650bab699))
  (pad "D1" smd circle (at -1.8 -0.2) (size 0.175 0.175) (layers "F.Cu" "F.Paste" "F.Mask") (tstamp f90c35d3-f2c3-4b4f-8d94-9a57cabcaf16))
  (pad "D2" smd circle (at -1.4 -0.2) (size 0.175 0.175) (layers "F.Cu" "F.Paste" "F.Mask") (tstamp b2ab3948-85e0-4a2f-be7a-9bebd8125a75))
  (pad "D3" smd circle (at -1 -0.2) (size 0.175 0.175) (layers "F.Cu" "F.Paste" "F.Mask") (tstamp a3fe1bb1-3fe1-43ef-8ffe-f388ef58aec7))
  (pad "D4" smd circle (at -0.6 -0.2) (size 0.175 0.175) (layers "F.Cu" "F.Paste" "F.Mask") (tstamp 9d081c44-5b7a-4599-8a09-4232043a0e44))
  (pad "D5" smd circle (at -0.2 -0.2) (size 0.175 0.175) (layers "F.Cu" "F.Paste" "F.Mask") (tstamp 6dbef8e8-aa01-400d-ac5b-d0002540639d))
  (pad "D6" smd circle (at 0.2 -0.2) (size 0.175 0.175) (layers "F.Cu" "F.Paste" "F.Mask") (tstamp a1dba890-8d06-4001-a17d-df947f9875d7))
  (pad "D7" smd circle (at 0.6 -0.2) (size 0.175 0.175) (layers "F.Cu" "F.Paste" "F.Mask") (tstamp 4ad4fa6d-7fa3-4b9a-ac13-e59458d31447))
  (pad "D8" smd circle (at 1 -0.2) (size 0.175 0.175) (layers "F.Cu" "F.Paste" "F.Mask") (tstamp 0ae95e94-630c-480e-b3d8-7e746632d488))
  (pad "D9" smd circle (at 1.4 -0.2) (size 0.175 0.175) (layers "F.Cu" "F.Paste" "F.Mask") (tstamp 9e1b09b6-e0d9-402b-a2e4-c06dad4246b5))
  (pad "D10" smd circle (at 1.8 -0.2) (size 0.175 0.175) (layers "F.Cu" "F.Paste" "F.Mask") (tstamp c6dcd094-a896-4c00-be5f-54986012e12f))
  (pad "E1" smd circle (at -1.8 0.2) (size 0.175 0.175) (layers "F.Cu" "F.Paste" "F.Mask") (tstamp fcc4f8a1-5a98-4455-87af-519fa0c74103))
  (pad "E2" smd circle (at -1.4 0.2) (size 0.175 0.175) (layers "F.Cu" "F.Paste" "F.Mask") (tstamp e65f4c15-e59b-435a-80fe-bc0ca503422c))
  (pad "E3" smd circle (at -1 0.2) (size 0.175 0.175) (layers "F.Cu" "F.Paste" "F.Mask") (tstamp 8016ccbc-0c57-4ecf-8146-fb3ce12e63df))
  (pad "E4" smd circle (at -0.6 0.2) (size 0.175 0.175) (layers "F.Cu" "F.Paste" "F.Mask") (tstamp 9f547117-990c-40fd-897a-a86bf9ba647a))
  (pad "E5" smd circle (at -0.2 0.2) (size 0.175 0.175) (layers "F.Cu" "F.Paste" "F.Mask") (tstamp 08efdc6b-f69e-4d15-b16d-c6c9be73a0d0))
  (pad "E6" smd circle (at 0.2 0.2) (size 0.175 0.175) (layers "F.Cu" "F.Paste" "F.Mask") (tstamp ae95003e-2725-483a-a3e1-15e82f1e2db9))
  (pad "E7" smd circle (at 0.6 0.2) (size 0.175 0.175) (layers "F.Cu" "F.Paste" "F.Mask") (tstamp fdf1d6d2-8ec9-4beb-9471-08dd96e33acc))
  (pad "E8" smd circle (at 1 0.2) (size 0.175 0.175) (layers "F.Cu" "F.Paste" "F.Mask") (tstamp b8d32f8a-11f5-4579-a9d8-2bf7aefab813))
  (pad "E9" smd circle (at 1.4 0.2) (size 0.175 0.175) (layers "F.Cu" "F.Paste" "F.Mask") (tstamp 50030e4f-2116-4d04-9fdc-7f5cb05a2cd5))
  (pad "E10" smd circle (at 1.8 0.2) (size 0.175 0.175) (layers "F.Cu" "F.Paste" "F.Mask") (tstamp ed23ee4c-7c93-463e-8115-d993271e559d))
  (pad "F1" smd circle (at -1.8 0.6) (size 0.175 0.175) (layers "F.Cu" "F.Paste" "F.Mask") (tstamp c56c310d-26de-4f6c-828a-d65e8c393ebb))
  (pad "F2" smd circle (at -1.4 0.6) (size 0.175 0.175) (layers "F.Cu" "F.Paste" "F.Mask") (tstamp 64a5f22d-9f4a-4b4d-9d82-56fa8d261d6d))
  (pad "F3" smd circle (at -1 0.6) (size 0.175 0.175) (layers "F.Cu" "F.Paste" "F.Mask") (tstamp 6ad9c765-a2f4-49df-b999-6000de7c3692))
  (pad "F4" smd circle (at -0.6 0.6) (size 0.175 0.175) (layers "F.Cu" "F.Paste" "F.Mask") (tstamp 6814bd31-6c17-4216-87b0-4d3bcb3f239f))
  (pad "F5" smd circle (at -0.2 0.6) (size 0.175 0.175) (layers "F.Cu" "F.Paste" "F.Mask") (tstamp 544eb34f-4ac7-4f7a-96fe-0fe28572cc88))
  (pad "F6" smd circle (at 0.2 0.6) (size 0.175 0.175) (layers "F.Cu" "F.Paste" "F.Mask") (tstamp 75410715-3944-4f14-88e2-773618253378))
  (pad "F7" smd circle (at 0.6 0.6) (size 0.175 0.175) (layers "F.Cu" "F.Paste" "F.Mask") (tstamp e5198e70-dbbb-4084-a8c7-86244a04f622))
  (pad "F8" smd circle (at 1 0.6) (size 0.175 0.175) (layers "F.Cu" "F.Paste" "F.Mask") (tstamp 0d8b5bf0-2b4f-4e21-b2da-79585b42b89c))
  (pad "F9" smd circle (at 1.4 0.6) (size 0.175 0.175) (layers "F.Cu" "F.Paste" "F.Mask") (tstamp 238d7802-f885-43dc-8459-b8a62eadde11))
  (pad "F10" smd circle (at 1.8 0.6) (size 0.175 0.175) (layers "F.Cu" "F.Paste" "F.Mask") (tstamp d68f142f-19b6-4d7d-ab1a-8023b2ce2ddd))
  (pad "G1" smd circle (at -1.8 1) (size 0.175 0.175) (layers "F.Cu" "F.Paste" "F.Mask") (tstamp 388bb916-ebbe-47d3-8b5f-2dab6602707a))
  (pad "G2" smd circle (at -1.4 1) (size 0.175 0.175) (layers "F.Cu" "F.Paste" "F.Mask") (tstamp 24e5cc91-dd67-4735-962f-0decf9850481))
  (pad "G3" smd circle (at -1 1) (size 0.175 0.175) (layers "F.Cu" "F.Paste" "F.Mask") (tstamp b6811ef5-5820-40d5-8e10-8922c4918a0b))
  (pad "G4" smd circle (at -0.6 1) (size 0.175 0.175) (layers "F.Cu" "F.Paste" "F.Mask") (tstamp b1d08a1e-29a9-434b-9b74-0be63c2a5cc0))
  (pad "G5" smd circle (at -0.2 1) (size 0.175 0.175) (layers "F.Cu" "F.Paste" "F.Mask") (tstamp 0fcb5508-defe-485b-a2d3-532987740893))
  (pad "G6" smd circle (at 0.2 1) (size 0.175 0.175) (layers "F.Cu" "F.Paste" "F.Mask") (tstamp 26b66c09-73d5-4cdf-b6c8-0d16950ee486))
  (pad "G7" smd circle (at 0.6 1) (size 0.175 0.175) (layers "F.Cu" "F.Paste" "F.Mask") (tstamp e8dddc8f-c337-415e-90c4-4e34bfdc2320))
  (pad "G8" smd circle (at 1 1) (size 0.175 0.175) (layers "F.Cu" "F.Paste" "F.Mask") (tstamp 45e2d246-1124-446f-b507-8265773b5c26))
  (pad "G9" smd circle (at 1.4 1) (size 0.175 0.175) (layers "F.Cu" "F.Paste" "F.Mask") (tstamp f0164457-0062-4397-87ac-f7becc8b551a))
  (pad "G10" smd circle (at 1.8 1) (size 0.175 0.175) (layers "F.Cu" "F.Paste" "F.Mask") (tstamp 0e39cbe5-eea7-449c-9c1d-42971a533e89))
  (pad "H1" smd circle (at -1.8 1.4) (size 0.175 0.175) (layers "F.Cu" "F.Paste" "F.Mask") (tstamp 464907bd-845c-4c0c-8fbb-5bbd64cd4a58))
  (pad "H2" smd circle (at -1.4 1.4) (size 0.175 0.175) (layers "F.Cu" "F.Paste" "F.Mask") (tstamp a9bc1751-ce3a-4474-9208-9ad938d1a85f))
  (pad "H3" smd circle (at -1 1.4) (size 0.175 0.175) (layers "F.Cu" "F.Paste" "F.Mask") (tstamp c6afd1c0-8259-43cd-a8d1-a62ea590b0bc))
  (pad "H4" smd circle (at -0.6 1.4) (size 0.175 0.175) (layers "F.Cu" "F.Paste" "F.Mask") (tstamp ff138ba5-1b46-463e-8a64-83a77978d262))
  (pad "H5" smd circle (at -0.2 1.4) (size 0.175 0.175) (layers "F.Cu" "F.Paste" "F.Mask") (tstamp c222d9a8-f36e-4d74-b570-8be4ecc69a35))
  (pad "H6" smd circle (at 0.2 1.4) (size 0.175 0.175) (layers "F.Cu" "F.Paste" "F.Mask") (tstamp b211fb2c-fb82-4fad-9500-2cd28b7ee644))
  (pad "H7" smd circle (at 0.6 1.4) (size 0.175 0.175) (layers "F.Cu" "F.Paste" "F.Mask") (tstamp 0a40c50c-579b-45e6-a4a7-bd58001ec251))
  (pad "H8" smd circle (at 1 1.4) (size 0.175 0.175) (layers "F.Cu" "F.Paste" "F.Mask") (tstamp 1ee3355a-2431-4107-8b48-b846c13202c4))
  (pad "H9" smd circle (at 1.4 1.4) (size 0.175 0.175) (layers "F.Cu" "F.Paste" "F.Mask") (tstamp 3fd1789f-ade2-4ca0-ba22-00b5987d024e))
  (pad "H10" smd circle (at 1.8 1.4) (size 0.175 0.175) (layers "F.Cu" "F.Paste" "F.Mask") (tstamp 3abea3f1-fde6-453f-87fc-92bc2d49c7de))
  (model "${KICAD7_3DMODEL_DIR}/Package_CSP.3dshapes/Efinix_WLCSP-80_4.4567x3.5569mm_Layout10x8_P0.4mm.wrl"
    (offset (xyz 0 0 0))
    (scale (xyz 1 1 1))
    (rotate (xyz 0 0 0))
  )
)
